Hao-to - space
…
What’s interesting about this is the question: `What entity is contributing to the sudden increase of the total number of objects launched per year?’. We can also attempt to numerically calculate the percentage change each year in the total number of objects, and also group it by entity!

Code

#As there are a lot of entities and countries, it may be good to create some distinction between countries/entities that launch a lot of things vs not alot.

total_df <- space |> group_by(Entity) |> summarize(total = sum(num_objects))

total_df

# A tibble: 109 × 2
   Entity     total
   <chr>      <dbl>
 1 APSCO          1
 2 Algeria        6
 3 Angola         2
 4 Arabsat       15
 5 Argentina     22
 6 Armenia        1
 7 Australia     47
 8 Austria        3
 9 Azerbaijan     3
10 Bangladesh     2
# ℹ 99 more rows
…
